What would it take to recreate dplyr in python? | Michael Chow
…
library(dplyr)
my_arbitrary_func <- function(x) x + 1

# group data by cyl

mtcars %>%
  select(cyl, hp) %>%
  group_by(cyl) %>%
  mutate(
    dumb_result = my_arbitrary_func(hp),     # custom function
    demeaned = hp - mean(hp)                 # complex expression
  )

# A tibble: 32 x 4
# Groups:   cyl [3]
    cyl    hp dumb_result demeaned
  <dbl> <dbl>       <dbl>    <dbl>
1     6   110         111    -12.3
2     6   110         111    -12.3
3     4    93          94     10.4
4     6   110         111    -12.3
5     8   175         176    -34.2
# … with 27 more rows
…
