Simple things are hard with pandas (part 1): column selection | Michael Chow
…
Predictable

what

how

Gentle (Progressive complexity)

Dplyr and Selection

# move class column to front
mpg %>% select(class, everything())

## # A tibble: 234 x 11
##    class manufacturer model displ  year   cyl tra… drv     cty   hwy fl   
##    <chr> <chr>        <chr> <dbl> <int> <int> <ch> <chr> <int> <int> <chr>
##  1 comp… audi         a4      1.8  1999     4 aut… f        18    29 p    
##  2 comp… audi         a4      1.8  1999     4 man… f        21    29 p    
##  3 comp… audi         a4      2    2008     4 man… f        20    31 p    
##  4 comp… audi         a4      2    2008     4 aut… f        21    30 p    
##  5 comp… audi         a4      2.8  1999     6 aut… f        16    26 p    
##  6 comp… audi         a4      2.8  1999     6 man… f        18    26 p    
##  7 comp… audi         a4      3.1  2008     6 aut… f        18    27 p    
##  8 comp… audi         a4 q…   1.8  1999     4 man… 4        18    26 p    
##  9 comp… audi         a4 q…   1.8  1999     4 aut… 4        16    25 p    
## 10 comp… audi         a4 q…   2    2008     4 man… 4        20    28 p    
## # ... with 224 more rows

# drop everything but
mpg %>% select(-model)

## # A tibble: 234 x 10
##    manufacturer displ  year   cyl trans     drv     cty   hwy fl    class 
##    <chr>        <dbl> <int> <int> <chr>     <chr> <int> <int> <chr> <chr> 
##  1 audi           1.8  1999     4 auto(l5)  f        18    29 p     compa…
##  2 audi           1.8  1999     4 manual(m… f        21    29 p     compa…
##  3 audi           2    2008     4 manual(m… f        20    31 p     compa…
##  4 audi           2    2008     4 auto(av)  f        21    30 p     compa…
##  5 audi           2.8  1999     6 auto(l5)  f        16    26 p     compa…
##  6 audi           2.8  1999     6 manual(m… f        18    26 p     compa…
##  7 audi           3.1  2008     6 auto(av)  f        18    27 p     compa…
##  8 audi           1.8  1999     4 manual(m… 4        18    26 p     compa…
##  9 audi           1.8  1999     4 auto(l5)  4        16    25 p     compa…
## 10 audi           2    2008     4 manual(m… 4        20    28 p     compa…
## # ... with 224 more rows

# change name
mpg %>% select(car_model = model)

## # A tibble: 234 x 1
##    car_model 
##    <chr>     
##  1 a4        
##  2 a4        
##  3 a4        
##  4 a4        
##  5 a4        
##  6 a4        
##  7 a4        
##  8 a4 quattro
##  9 a4 quattro
## 10 a4 quattro
## # ... with 224 more rows

# combine rules
mpg %>% select(-model, class2 = class)

## # A tibble: 234 x 10
##    manufacturer displ  year   cyl trans     drv     cty   hwy fl    class2
##    <chr>        <dbl> <int> <int> <chr>     <chr> <int> <int> <chr> <chr> 
##  1 audi           1.8  1999     4 auto(l5)  f        18    29 p     compa…
##  2 audi           1.8  1999     4 manual(m… f        21    29 p     compa…
##  3 audi           2    2008     4 manual(m… f        20    31 p     compa…
##  4 audi           2    2008     4 auto(av)  f        21    30 p     compa…
##  5 audi           2.8  1999     6 auto(l5)  f        16    26 p     compa…
##  6 audi           2.8  1999     6 manual(m… f        18    26 p     compa…
##  7 audi           3.1  2008     6 auto(av)  f        18    27 p     compa…
##  8 audi           1.8  1999     4 manual(m… 4        18    26 p     compa…
##  9 audi           1.8  1999     4 auto(l5)  4        16    25 p     compa…
## 10 audi           2    2008     4 manual(m… 4        20    28 p     compa…
## # ... with 224 more rows

# EXCEPTION (not predictable)
mpg %>% select(class2 = class, -model)

## # A tibble: 234 x 1
##    class2 
##    <chr>  
##  1 compact
##  2 compact
##  3 compact
##  4 compact
##  5 compact
##  6 compact
##  7 compact
##  8 compact
##  9 compact
## 10 compact
## # ... with 224 more rows

# select things matching a pattern
mpg %>% select(starts_with("m"))

## # A tibble: 234 x 2
##    manufacturer model     
##    <chr>        <chr>     
##  1 audi         a4        
##  2 audi         a4        
##  3 audi         a4        
##  4 audi         a4        
##  5 audi         a4        
##  6 audi         a4        
##  7 audi         a4        
##  8 audi         a4 quattro
##  9 audi         a4 quattro
## 10 audi         a4 quattro
## # ... with 224 more rows

# selecting using :
mpg %>% select(manufacturer:year)

## # A tibble: 234 x 4
##    manufacturer model      displ  year
##    <chr>        <chr>      <dbl> <int>
##  1 audi         a4           1.8  1999
##  2 audi         a4           1.8  1999
##  3 audi         a4           2    2008
##  4 audi         a4           2    2008
##  5 audi         a4           2.8  1999
##  6 audi         a4           2.8  1999
##  7 audi         a4           3.1  2008
##  8 audi         a4 quattro   1.8  1999
##  9 audi         a4 quattro   1.8  1999
## 10 audi         a4 quattro   2    2008
## # ... with 224 more rows
…
